<svg 
 xmlns="http://www.w3.org/2000/svg"
 xmlns:xlink="http://www.w3.org/1999/xlink"
 width="13px" height="28px">
<path fill-rule="evenodd"  fill="rgb(37, 40, 37)"
 d="M8.645,28.002 L2.878,28.002 L2.878,13.998 L-0.004,13.998 L-0.004,9.173 L2.878,9.173 L2.878,6.275 C2.878,2.338 4.504,-0.002 9.127,-0.002 L12.976,-0.002 L12.976,4.824 L10.570,4.824 C8.771,4.824 8.652,5.498 8.652,6.756 L8.645,9.173 L13.003,9.173 L12.494,13.998 L8.645,13.998 L8.645,28.002 L8.645,28.002 Z"/>
</svg>