<?xml version="1.0" encoding="UTF-8" standalone="no"?>
<!-- Created with Inkscape (http://www.inkscape.org/) -->

<svg
   viewBox="0 0 100 100"
   >
    <path
       style="color:#000000;font-style:normal;font-variant:normal;font-weight:normal;font-stretch:normal;font-size:medium;line-height:normal;font-family:sans-serif;font-variant-ligatures:normal;font-variant-position:normal;font-variant-caps:normal;font-variant-numeric:normal;font-variant-alternates:normal;font-feature-settings:normal;text-indent:0;text-align:start;text-decoration:none;text-decoration-line:none;text-decoration-style:solid;text-decoration-color:#000000;letter-spacing:normal;word-spacing:normal;text-transform:none;writing-mode:lr-tb;direction:ltr;text-orientation:mixed;dominant-baseline:auto;baseline-shift:baseline;text-anchor:start;white-space:normal;shape-padding:0;clip-rule:nonzero;display:inline;overflow:visible;visibility:visible;opacity:1;isolation:auto;mix-blend-mode:normal;color-interpolation:sRGB;color-interpolation-filters:linearRGB;solid-color:#000000;solid-opacity:1;vector-effect:none;fill:#000000;fill-opacity:1;fill-rule:nonzero;stroke:none;stroke-width:0.52916664;stroke-linecap:butt;stroke-linejoin:miter;stroke-miterlimit:4;stroke-dasharray:none;stroke-dashoffset:0;stroke-opacity:1;color-rendering:auto;image-rendering:auto;shape-rendering:auto;text-rendering:auto;enable-background:accumulate"
       d="M 75.925781,32.011719 C 70.444653,32.468838 64.964517,33.994273 59.791016,36.681641 39.097008,47.431113 31.137553,72.717538 42.017578,93.15625 c 10.850239,20.38276 36.336219,28.24308 57.009766,17.64258 l 0.0078,0.0156 0.16211,-0.084 0.0039,-0.002 0.06641,-0.0352 0.171875,-0.0879 -0.0098,-0.0176 C 119.98355,99.768991 127.85774,74.576468 116.99023,54.205078 108.81648,38.883184 92.369167,30.64036 75.925781,32.011719 Z m 0.04492,0.52539 c 16.239817,-1.355435 32.480629,6.784671 40.552739,21.916016 10.72075,20.096292 2.97528,44.920808 -17.279301,55.626955 v 0 l -0.535155,0.2793 v 0 C 78.300742,120.77254 53.186353,113.01049 42.484375,92.90625 31.739662,72.72173 39.593018,47.76903 60.035156,37.150391 c 5.110535,-2.65466 10.522275,-4.16147 15.935547,-4.613282 z"
       id="path10194"
       />
</svg>
