<svg 
 xmlns="http://www.w3.org/2000/svg"
 xmlns:xlink="http://www.w3.org/1999/xlink"
 width="24px" height="20px">
<path fill-rule="evenodd"  fill="rgb(255, 255, 255)"
 d="M16.320,0.007 C18.226,-0.027 19.240,0.686 20.208,1.593 C21.030,1.521 22.099,1.049 22.728,0.721 C22.932,0.606 23.136,0.491 23.340,0.376 C22.981,1.374 22.493,2.156 21.744,2.749 C21.578,2.881 21.413,3.058 21.204,3.142 C21.204,3.146 21.204,3.150 21.204,3.154 C22.272,3.143 23.152,2.649 23.988,2.380 C23.988,2.384 23.988,2.388 23.988,2.393 C23.549,3.110 22.955,3.838 22.320,4.360 C22.064,4.569 21.808,4.777 21.552,4.986 C21.566,6.148 21.536,7.256 21.324,8.232 C20.096,13.906 16.841,17.757 11.688,19.408 C9.838,20.000 6.848,20.243 4.728,19.703 C3.677,19.434 2.727,19.132 1.836,18.732 C1.341,18.509 0.882,18.268 0.444,17.994 C0.300,17.904 0.156,17.813 0.012,17.723 C0.490,17.737 1.049,17.873 1.584,17.785 C2.067,17.705 2.542,17.725 2.988,17.625 C4.101,17.374 5.089,17.042 5.940,16.531 C6.352,16.283 6.979,15.991 7.272,15.633 C6.719,15.643 6.218,15.512 5.808,15.363 C4.217,14.785 3.290,13.724 2.688,12.129 C3.170,12.183 4.559,12.313 4.884,12.031 C4.277,11.997 3.693,11.635 3.276,11.367 C1.996,10.544 0.952,9.164 0.960,7.040 C1.128,7.121 1.296,7.204 1.464,7.285 C1.785,7.425 2.112,7.499 2.496,7.581 C2.658,7.614 2.982,7.713 3.168,7.642 C3.160,7.642 3.152,7.642 3.144,7.642 C2.896,7.345 2.493,7.148 2.244,6.831 C1.423,5.782 0.653,4.167 1.140,2.245 C1.263,1.757 1.459,1.326 1.668,0.929 C1.676,0.933 1.684,0.938 1.692,0.942 C1.787,1.148 2.001,1.299 2.136,1.470 C2.555,2.004 3.073,2.485 3.600,2.908 C5.396,4.352 7.014,5.239 9.612,5.896 C10.271,6.063 11.033,6.190 11.820,6.191 C11.599,5.529 11.670,4.459 11.844,3.818 C12.282,2.209 13.233,1.047 14.628,0.425 C14.962,0.276 15.332,0.168 15.720,0.081 C15.920,0.056 16.120,0.032 16.320,0.007 Z"/>
</svg>